[
	{
		"flag": "AUD",
		"code": "AUD",
		"name": "Australian Dollar",
		"symbol": "$"
	},
	{
		"flag": "BGN",
		"code": "BGN",
		"name": "Bulgarian Lev",
		"symbol": "лв"
	},
	{
		"flag": "BRL",
		"code": "BRL",
		"name": "Brazilian Real",
		"symbol": "R$"
	},
	{
		"flag": "CAD",
		"code": "CAD",
		"name": "Canadian Dollar",
		"symbol": "$"
	},
	{
		"flag": "CHF",
		"code": "CHF",
		"name": "Swiss Franc",
		"symbol": "CHF"
	},
	{
		"flag": "CNY",
		"code": "CNY",
		"name": "Chinese Yuan",
		"symbol": "元"
	},
	{
		"flag": "CZK",
		"code": "CZK",
		"name": "Czech Koruna",
		"symbol": "Kč"
	},
	{
		"flag": "DKK",
		"code": "DKK",
		"name": "Danish Krone",
		"symbol": "kr"
	},
	{
		"flag": "GBP",
		"code": "GBP",
		"name": "British Pound",
		"symbol": "£"
	},
	{
		"flag": "HKD",
		"code": "HKD",
		"name": "Hong Kong Dollar",
		"symbol": "$"
	},
	{
		"flag": "HRK",
		"code": "HRK",
		"name": "Croatian Kuna",
		"symbol": "kn"
	},
	{
		"flag": "HUF",
		"code": "HUF",
		"name": "Hungarian Forint",
		"symbol": "Ft"
	},
	{
		"flag": "IDR",
		"code": "IDR",
		"name": "Indonesian Rupiah",
		"symbol": "Rp"
	},
	{
		"flag": "ILS",
		"code": "ILS",
		"name": "Israeli New Shekel",
		"symbol": "₪"
	},
	{
		"flag": "INR",
		"code": "INR",
		"name": "Indian Rupee",
		"symbol": "₹"
	},
	{
		"flag": "JPY",
		"code": "JPY",
		"name": "Japanese Yen",
		"symbol": "¥"
	},
	{
		"flag": "KRW",
		"code": "KRW",
		"name": "South Korean Won",
		"symbol": "₩"
	},
	{
		"flag": "MXN",
		"code": "MXN",
		"name": "Mexican Peso",
		"symbol": "$"
	},
	{
		"flag": "MYR",
		"code": "MYR",
		"name": "Malaysian Ringgit",
		"symbol": "RM"
	},
	{
		"flag": "NOK",
		"code": "NOK",
		"name": "Norwegian Krone",
		"symbol": "kr"
	},
	{
		"flag": "NZD",
		"code": "NZD",
		"name": "New Zealand Dollar",
		"symbol": "$"
	},
	{
		"flag": "PHP",
		"code": "PHP",
		"name": "Philippine Peso",
		"symbol": "₱"
	},
	{
		"flag": "PLN",
		"code": "PLN",
		"name": "Polish Zloty",
		"symbol": "zł"
	},
	{
		"flag": "RON",
		"code": "RON",
		"name": "Romanian Leu",
		"symbol": "RON"
	},
	{
		"flag": "RUB",
		"code": "RUB",
		"name": "Russian Ruble",
		"symbol": "₽"
	},
	{
		"flag": "SEK",
		"code": "SEK",
		"name": "Swedish Krona",
		"symbol": "kr"
	},
	{
		"flag": "SGD",
		"code": "SGD",
		"name": "Singapore Dollar",
		"symbol": "S$"
	},
	{
		"flag": "THB",
		"code": "THB",
		"name": "Thai Baht",
		"symbol": "฿"
	},
	{
		"flag": "TRY",
		"code": "TRY",
		"name": "Turkish Lira",
		"symbol": "₺"
	},
	{
		"flag": "ZAR",
		"code": "ZAR",
		"name": "South African Rand",
		"symbol": "R"
	},
	{
		"flag": "EUR",
		"code": "EUR",
		"name": "Euro",
		"symbol": "€"
	},
	{
		"flag": "USD",
		"code": "USD",
		"name": "US Dollar",
		"symbol": "$"
	}
]
